Tidy Tuesday #1 - School Diversity
…
diversity2 %>%
  arrange(desc(Total)) %>%
  filter(Total >= 100000) %>%
  select(LEA_NAME, SCHOOL_YEAR, Total)

## # A tibble: 47 x 3
##    LEA_NAME                     SCHOOL_YEAR   Total
##    <chr>                        <chr>         <dbl>
##  1 new york city public schools 1994-1995   1020747
##  2 new york city public schools 2016-2017    918514
##  3 los angeles unified          1994-1995    632631
##  4 los angeles unified          2016-2017    449387
##  5 city of chicago sd 299       1994-1995    405856
##  6 dade                         1994-1995    326848
##  7 city of chicago sd 299       2016-2017    319535
##  8 clark county school district 2016-2017    318418
##  9 dade                         2016-2017    291737
## 10 broward                      2016-2017    218485
## #  with 37 more rows
…
